2021-05-07 17:23:24,534 [24] INFO SendBillUpload.BillUploadTrigger - Activated the service...
2021-05-07 17:23:31,553 [11] INFO SendBillUpload.BillUploadTrigger - retry...3
2021-05-07 17:23:31,553 [6] INFO SendBillUpload.BillUploadTrigger - retry...3
2021-05-07 17:23:31,553 [19] INFO SendBillUpload.BillUploadTrigger - retry...1
2021-05-07 17:23:31,553 [13] INFO SendBillUpload.BillUploadTrigger - retry...1
2021-05-07 17:23:31,553 [8] INFO SendBillUpload.BillUploadTrigger - retry...3
2021-05-07 17:23:31,554 [7] INFO SendBillUpload.BillUploadTrigger - retry...4
2021-05-07 17:23:31,555 [29] INFO SendBillUpload.BillUploadTrigger - Activated the service...
2021-05-07 17:23:32,542 [23] INFO SendBillUpload.BillUploadTrigger - retry...1
2021-05-07 17:23:32,542 [9] INFO SendBillUpload.BillUploadTrigger - retry...3
2021-05-07 17:23:32,542 [10] INFO SendBillUpload.BillUploadTrigger - retry...3
2021-05-07 17:23:33,149 [12] INFO SendBillUpload.BillUploadTrigger - retry...2
2021-05-07 17:23:34,571 [30] INFO SendBillUpload.BillUploadTrigger - Activated the service...
