2021-05-07 17:23:07,992 [6] INFO SendBillUpload.BillUploadTrigger - retry...1
2021-05-07 17:23:10,876 [13] INFO SendBillUpload.BillUploadTrigger - Activated the service...
2021-05-07 17:23:12,058 [8] INFO SendBillUpload.BillUploadTrigger - retry...2
2021-05-07 17:23:12,073 [7] INFO SendBillUpload.BillUploadTrigger - retry...2
2021-05-07 17:23:13,009 [11] INFO SendBillUpload.BillUploadTrigger - retry...1
2021-05-07 17:23:13,879 [19] INFO SendBillUpload.BillUploadTrigger - Activated the service...
2021-05-07 17:23:21,519 [9] INFO SendBillUpload.BillUploadTrigger - retry...2
2021-05-07 17:23:21,519 [10] INFO SendBillUpload.BillUploadTrigger - retry...2
2021-05-07 17:23:21,519 [23] INFO SendBillUpload.BillUploadTrigger - Activated the service...
2021-05-07 17:23:23,196 [12] INFO SendBillUpload.BillUploadTrigger - retry...1
2021-05-07 17:23:23,198 [6] INFO SendBillUpload.BillUploadTrigger - retry...2
2021-05-07 17:23:23,198 [11] INFO SendBillUpload.BillUploadTrigger - retry...2
2021-05-07 17:23:23,203 [7] INFO SendBillUpload.BillUploadTrigger - retry...3
