2021-05-07 17:19:52,329 [1] INFO SendBillUpload.BillUploadTrigger - Next Interval : 23:25:07.6718442
2021-05-07 17:19:52,339 [1] INFO SendBillUpload.BillUploadTrigger - interval time in Milliseconds84307671.8442
2021-05-07 17:19:52,340 [1] INFO SendBillUpload.BillUploadTrigger - Service Started
2021-05-07 17:20:35,621 [1] INFO SendBillUpload.BillUploadTrigger - Next Interval : 23:24:24.3797043
2021-05-07 17:20:35,630 [1] INFO SendBillUpload.BillUploadTrigger - interval time in Milliseconds84264379.7043
2021-05-07 17:20:35,631 [1] INFO SendBillUpload.BillUploadTrigger - Service Started
2021-05-07 17:21:24,881 [1] INFO SendBillUpload.BillUploadTrigger - Next Interval : 23:23:35.5993477
2021-05-07 17:21:25,855 [1] INFO SendBillUpload.BillUploadTrigger - interval time in Milliseconds84215599.3477
2021-05-07 17:21:27,030 [1] INFO SendBillUpload.BillUploadTrigger - Service Started
2021-05-07 17:22:20,105 [1] INFO SendBillUpload.BillUploadTrigger - Next Interval : 23:22:40.3528910
2021-05-07 17:22:27,336 [1] INFO SendBillUpload.BillUploadTrigger - interval time in Milliseconds3000
