2021-05-07 17:22:27,337 [1] INFO SendBillUpload.BillUploadTrigger - Service Started
2021-05-07 17:22:30,356 [6] INFO SendBillUpload.BillUploadTrigger - Activated the service...
2021-05-07 17:22:33,742 [7] INFO SendBillUpload.BillUploadTrigger - Activated the service...
2021-05-07 17:22:52,686 [8] INFO SendBillUpload.BillUploadTrigger - Activated the service...
2021-05-07 17:22:55,691 [9] INFO SendBillUpload.BillUploadTrigger - Activated the service...
2021-05-07 17:23:01,849 [10] INFO SendBillUpload.BillUploadTrigger - Activated the service...
2021-05-07 17:23:03,937 [7] INFO SendBillUpload.BillUploadTrigger - retry...1
2021-05-07 17:23:04,853 [11] INFO SendBillUpload.BillUploadTrigger - Activated the service...
2021-05-07 17:23:05,937 [9] INFO SendBillUpload.BillUploadTrigger - retry...1
2021-05-07 17:23:05,937 [10] INFO SendBillUpload.BillUploadTrigger - retry...1
2021-05-07 17:23:07,865 [12] INFO SendBillUpload.BillUploadTrigger - Activated the service...
2021-05-07 17:23:07,974 [8] INFO SendBillUpload.BillUploadTrigger - retry...1
